{
  "access_token": "bff1da0d-a701-434f-9c8c-88a213ec9d8c", 
  "api": "https://graph.api.smartthings.com/api/smartapps/endpoints/354b5f4d-459d-434a-8354-78642cdfbd5f/", 
  "api_location": "graph-na02-useast1.api.smartthings.com", 
  "client_id": "354b5f4d-459d-434a-8354-78642cdfbd5f", 
  "client_secret": "1691ed2f-ebc6-44db-8f5d-9019bd8806a5", 
  "expires_in": 1574976292, 
  "scope": "app", 
  "token_type": "bearer"
}
 
